cmssw_3_9_2_patch5-slc5_amd64_gcc434
cmssw_4_2_8-slc5_amd64_gcc434
cmssw_4_2_8_lowpupatch1-slc5_amd64_gcc434
cmssw_4_4_7-slc5_amd64_gcc434
cmssw_5_3_20-slc6_amd64_gcc472
cmssw_5_3_32-slc6_amd64_gcc472
cmssw_7_5_8_patch3-slc6_amd64_gcc491
cmssw_7_6_7-slc6_amd64_gcc493
cmssw_10_6_30-slc7_amd64_gcc700
